…
### Average ride length by months

``` r
clean_trip_22 %>% group_by(member_casual, month) %>% 
  summarise(average_month_ride_length = mean(ride_length), median_month_length = median(ride_length), 
            max_month_ride_length = max(ride_length), min_month_ride_length = min(ride_length),.groups = "drop")
```

    ## # A tibble: 24 × 6
    ##    member_casual month    average_month_ride_length median_month_length
    ##    <chr>         <chr>    <drtn>                    <time>             
    ##  1 casual        April    1444.4157 secs            14'25"             
    ##  2 casual        August   1323.9080 secs            13'35"             
    ##  3 casual        December  856.2905 secs            08'37"             
    ##  4 casual        February 1222.8356 secs            10'53"             
    ##  5 casual        January  1063.2873 secs            09'56"             
    ##  6 casual        July     1416.8827 secs            14'38"             
    ##  7 casual        June     1413.0781 secs            14'47"             
    ##  8 casual        March    1500.7481 secs            14'37"             
    ##  9 casual        May      1550.1390 secs            15'48"             
    ## 10 casual        November  987.8537 secs            09'53"             
    ## # ℹ 14 more rows
    ## # ℹ 2 more variables: max_month_ride_length <drtn>,
    ## #   min_month_ride_length <drtn>
…
### average monthly distance covered by members and casual riders

``` r
clean_trip_22 %>% group_by(member_casual, month) %>% 
  summarise(average_month_ride_distance = mean(ride_distance), median_month_distance = median(ride_distance),max_month_ride_distance = max(ride_distance), min_month_ride_distance=min(ride_distance),.groups ="drop") %>% 
  arrange(member_casual, month)
```

    ## # A tibble: 24 × 6
    ##    member_casual month    average_month_ride_distance median_month_distance
    ##    <chr>         <chr>                          <dbl>                 <dbl>
    ##  1 casual        April                          2352.                 1802.
    ##  2 casual        August                         2334.                 1795.
    ##  3 casual        December                       1796.                 1401.
    ##  4 casual        February                       2036.                 1569.
    ##  5 casual        January                        1961.                 1470.
    ##  6 casual        July                           2365.                 1827.
    ##  7 casual        June                           2387.                 1867.
    ##  8 casual        March                          2326.                 1768.
    ##  9 casual        May                            2428.                 1871.
    ## 10 casual        November                       2273.                 1530.
    ## # ℹ 14 more rows
    ## # ℹ 2 more variables: max_month_ride_distance <dbl>,
    ## #   min_month_ride_distance <dbl>
…
